Libro sobre VirusTotal
…
files <- list.files()

library(parallel)
cl <- makeCluster(detectCores() - 1)
json_list<-parLapply(cl,files,function(x) jsonlite::read_json(path = x, simplifyVector = TRUE))
stopCluster(cl)

class(json_list)

## [1] "list"

t1 <- json_list %>% gather_object
t1

## # A tbl_json: 5,124 x 3 tibble with a "JSON" attribute
##    ..JSON                  document.id name            
##    <chr>                         <int> <chr>           
##  1 "\"f6e2a738ceacee..."             1 vhash           
##  2 "\"/vdepot/apk/42..."             1 submission_names
##  3 "\"2021-11-03 08:..."             1 scan_date       
##  4 "\"2021-11-03 08:..."             1 first_seen      
##  5 "61"                              1 total           
##  6 "{\"exiftool\":{\"M..."           1 additional_info 
##  7 "1956125"                         1 size            
##  8 "null"                            1 authentihash    
##  9 "1"                               1 times_submitted 
## 10 "0"                               1 harmless_votes  
## # ... with 5,114 more rows

json_tabla <- json_list %>%
  spread_all()
json_tabla

## # A tbl_json: 183 x 1,122 tibble with a "JSON" attribute
##    ..JSON   document.id vhash submission_names scan_date first_seen total   size
##    <chr>          <int> <chr> <chr>            <chr>     <chr>      <dbl>  <dbl>
##  1 "{\"vha~           1 f6e2~ /vdepot/apk/42/~ 2021-11-~ 2021-11-0~    61 1.96e6
##  2 "{\"vha~           2 c33f~ 398e6e8146d6147~ 2021-11-~ 2021-11-0~    61 2.67e6
##  3 "{\"vha~           3 1a58~ 07d00b70d7f6.zip 2021-11-~ 2021-11-0~    61 4.00e6
##  4 "{\"vha~           4 adf3~ <NA>             2021-11-~ 2015-01-2~    64 5.00e5
##  5 "{\"vha~           5 f6e2~ /vdepot/apk/CD/~ 2021-11-~ 2021-11-0~    62 1.96e6
##  6 "{\"vha~           6 e289~ ff6f1dd413e4.zip 2021-11-~ 2021-11-0~    61 4.14e6
##  7 "{\"vha~           7 <NA>  b8456ae6435a76b~ 2021-11-~ 2021-06-0~    61 3.03e6
##  8 "{\"vha~           8 c33f~ 511a4359f936ffc~ 2021-11-~ 2021-11-0~    60 2.67e6
##  9 "{\"vha~           9 c33f~ ed89d9884a455e4~ 2021-11-~ 2021-11-0~    60 2.67e6
## 10 "{\"vha~          10 <NA>  <NA>             2021-11-~ 2017-11-2~    60 5.88e3
## # ... with 173 more rows, and 1,114 more variables: authentihash <lgl>,
## #   times_submitted <dbl>, harmless_votes <dbl>, malicious_votes <dbl>,
## #   sha256 <chr>, type <chr>, tags <chr>, scan_id <chr>, unique_sources <dbl>,
## #   positives <dbl>, ssdeep <chr>, md5 <chr>, permalink <chr>, sha1 <chr>,
## #   response_code <dbl>, community_reputation <dbl>, verbose_msg <chr>,
## #   last_seen <chr>, ITW_urls <chr>, additional_info.trid <chr>,
## #   additional_info.magic <chr>, submission.submitter_region <chr>, ...
…
